<?xml version="1.0" encoding="UTF-8" standalone="no"?>
<svg
   xmlns:dc="http://purl.org/dc/elements/1.1/"
   xmlns:cc="http://creativecommons.org/ns#"
   xmlns:rdf="http://www.w3.org/1999/02/22-rdf-syntax-ns#"
   xmlns:svg="http://www.w3.org/2000/svg"
   xmlns="http://www.w3.org/2000/svg"
   xmlns:sodipodi="http://sodipodi.sourceforge.net/DTD/sodipodi-0.dtd"
   xmlns:inkscape="http://www.inkscape.org/namespaces/inkscape"
   inkscape:version="1.0 (4035a4fb49, 2020-05-01)"
   version="1.1"
   viewBox="0 0 351.43 365.03"
   sodipodi:docname="prosystem.svg"
   id="svg2">
  <g
     transform="translate(-176.22 -362.84)"
     inkscape:groupmode="layer"
     inkscape:label="Camada 1"
     id="layer1">
    <path
       d="m348.91 363.34c-4.192 0.0449-8.4099 1.7102-12.125 3.6562l-7.5 3.9375c-2.8803 1.5087-6.1078 2.3358-8.9375 3.9375-5.2029 2.945-11.663 8.2484-14.625 10.344-2.9624 2.0953-3.6729 3.4167-8.2188 7.1562-4.5458 3.7396-15.488 7.7931-19.281 15l-3.5625 6.7812c-0.90259 1.7149-1.1216 3.781-1.0938 5.7188 0.0402 2.8018 1.7812 8.1875 1.7812 8.1875 3.1675 14.571 13.279 27.345 15 42.156 0.12439 1.0708-0.34375 3.2188-0.34375 3.2188-0.44485 4.0037-4.3724 6.7712-6.7812 10-1.01 1.35-3.22 3.94-3.22 3.94-1.3337 1.6301-2.6947-3.5456-4.6562-4.3125-1.2196-0.47685-3.9062 0-3.9062 0-1.8823 0-1.9595 4.3847-3.2188 4.6562-1.2593 0.27159-1.0883-1.1033-1.7812-1.0625l-6.1 0.34c-1.9346 0.1138-2.4299 3.3648-4.2812 3.9375-1.6084 0.49757-5-0.71875-5-0.71875-1.7159-0.24514-3.6109 0.4007-5 1.4375-1.2439 0.92843-2.5 3.9062-2.5 3.9062-0.6518 1.0242-2.3616-0.86557-3.5625-0.6875-3.7406 0.55465-10 5.3438-10 5.3438-1.787 0.95734-3.694 2.1531-4.6562 3.9375-1.8784 3.4831-1.4062 11.781-1.4062 11.781-0.66144 5.4569-4.1567 10.287-5 15.719-0.94973 6.1172 1.1045 12.471 0 18.562-0.36297 2.0016-2.1562 5.7188-2.1562 5.7188-3.5099 4.2798-3.4752 6.7609-3.2188 12.5l-9.625 21.062c-10.106 22.083-18.553 44.366-22.5 68.562-1.2692 7.781-4.0297 15.352-4.6562 23.219-0.24592 3.0878 0.375 9.2812 0.375 9.2812 0.20406 5.3054 6.0673 9.1966 10.688 11.812 3.6976 2.0936 12.5 2.5 12.5 2.5 4.2605 0.85209 8.7757-0.71624 12.875-2.1562 3.2183-1.1305 8.9375-5 8.9375-5 1.1426-0.63984 2.6124 0.20197 3.9062 0 12.35-1.9278 35.719-11.438 35.719-11.438 3.2488-1.0396 2.4596-6.6299 5-8.9062 8.8595-7.9385 32.875-13.938 32.875-13.938v2.125c0 10.544 2.4122 20.957 3.5625 31.438 1.1102 10.115 3.2188 30.375 3.2188 30.375h220.72v-192.88l-9.6562-2.125c-7.8407-1.7424-15.781-3.011-23.562-5-6.0209-1.5389-17.875-5.375-17.875-5.375-3.8314-1.1494-6.7114-4.3842-9.625-7.125-2.8311-2.6632-7.5-8.9375-7.5-8.9375-2.0688-2.4629-3.5866-5.4851-6.0938-7.5-1.245-1.0005-4.2812-2.1562-4.2812-2.1562-3.7404-1.8702-8.8032 3.0488-12.5 1.0938-1.9319-1.0217-3.2188-5.7188-3.2188-5.7188-4.0038-7.1179-8.651-13.891-12.5-21.094-2.8609-5.3538-7.8438-16.406-7.8438-16.406-2.7126-5.6717-4.6486-11.75-6.0625-17.875-2.371-10.272-4.0467-21.469-8.9375-30-1.8272-3.1871 9.2812-7.5 9.2812-7.5 0.79668-0.64347 1.4804-1.5211 1.7812-2.5 1.4695-4.7806-0.34375-15-0.34375-15-0.0216-0.90638-1.5994-1.1673-2.5-1.0625-3.382 0.39343-8.2188 6.0625-8.2188 6.0625-2.8689 2.1205-6.1017 4.3526-9.6562 4.6562-0.86354 0.0738-2.5-0.71875-2.5-0.71875-9.6594-2.7598-15.146-13.201-22.844-19.656-1.2965-1.0872-3.9375-3.1875-3.9375-3.1875-2.2663-1.8542-4.9321-3.6268-7.8438-3.9375-0.59575-0.0636-1.2136-0.10017-1.8125-0.0937zm-43.22 118.97c1.703-0.0736 4.429 2.8826 4.6875 4.7188 1.0824 7.6871-0.72592 16.307 0.34375 24.094 0.49176 3.5798 6.0553 4.435 9.375 3.1875 2.6184-1.0651 1.8698 3.5446 3.3438 4.9375 1.5394 1.4549 1.8087 4.4427 3.5625 5.25 1.8561 0.85437 4.9934 0.24629 5.0312 3.1562 0.0378 2.9107 4.2036 3.5049 6.5938 3.9688 2.5408 0.49311 4.83 1.05 4.2812 4.0312-0.47841 2.599 1.9054 4.5372 3.9062 5.1562 3.1297 0.96826 6.6375 0.83663 9.9688 1.1875-1.8797 2.8959-5.6184 3.5509-8.5625 5.0312-10.42 5.2395-24.331 10.564-31.719 14.875-7.3877 4.3112-7.5025 8.6024-11.688 11.719-4.185 3.1164-11.261 3.229-14.5 6.5625-3.2392 3.3335-4.1767 7.1418-7.8438 9.1562-4.8061 2.6401-11.038 2.0687-16.219 3.8125-2.5096 0.84472-4.6303 2.0501-6.3438 4.3125-4.3682 5.7678-6.2874 13.469-10.969 18.656-3.524 3.9051-8.3217 6.8514-12.688 10-4.795 3.4581-3.1944-1.9559-3.2812-4.9062-0.14847-5.046 2.2807-9.7607 3.5312-14.594 2.4773-9.5743 6.6875-18.591 10.219-27.812 2.1696-4.7066 5.5183-9.2894 6.8438-13.938 0.69576-2.4399 1.0849-4.0642 2.8125-5.8438 2.1185-2.1823 5.5578-2.4243 7.4062-4.5 2.6367-2.9608 4.3327-6.6911 5.6875-10.562 1.186-3.3892 3.6053-6.3057 6.5938-8.5 2.2374-1.6428 3.0303-4.1438 3.0938-6.9062 0.1034-4.503 0.75882-9.175 3.125-13.188 1.1728-1.9888 2.9065-3.6802 3.7812-5.6875 1.0378-2.3814-1.0328-5.8671 1.1562-8.125 2.7378-2.824 2.6017-7.937 5.4375-10.281 3.9007-3.2246 8.8518-7.6778 12.688-8.9062 0.10347-0.0331 0.23021-0.0576 0.34375-0.0625z"
       style="stroke:#d45500;stroke-width:1px;fill:#d45500"
       id="path2830" />
  </g>
</svg>
